…
``` r
#Getting column names of variables to kept in other datasets
vars_int <- names(mod_bg_5)

#Checking data
mod_bg_5
```

    ## # A tibble: 12,610 × 10
    ##    xt_ocean yt_ocean presence bottom_slope_deg dist_shelf_km dist_coast_km
    ##       <dbl>    <dbl>    <dbl>            <dbl>         <dbl>         <dbl>
    ##  1     75.8    -69.1        1             89.9          492.         130. 
    ##  2     75.4    -69.0        1             89.7          481.         117. 
    ##  3     76.0    -69.0        1             90.0          479.         119. 
    ##  4     75.4    -68.6        1             89.7          435.          71.7
    ##  5     75.4    -68.4        1             89.7          411.          47.9
    ##  6     74.2    -68.2        1             89.8          387.          23.2
    ##  7     74.2    -68.1        1             89.8          382.          18.6
    ##  8     75.8    -68.1        1             89.7          380.          35.9
    ##  9     77.0    -67.8        1             89.4          350.          36.2
    ## 10     76.6    -67.6        1             89.5          331.          11.4
    ## # ℹ 12,600 more rows
    ## # ℹ 4 more variables: depth_m <dbl>, SIC <dbl>, lt_pack_ice <dbl>,
    ## #   dist_ice_edge_km <dbl>
…
